purrr::mapを使ってpsych::alphaを一気に処理する – さかいの備忘録
…
まず、処理しやすいようにデータをlong型にします。ついでにtibble::rownames_to_column()でrownameをid列に変えておきます。id列がないとtidyr::pivot_wider()出来なくなるので、少なくともその処理の前にはやっておきます。

bfi |>
  rownames_to_column(var = "id") |>
  pivot_longer(
1    cols = matches("\\w\\d"),
    names_to = "items"
  )

1

引数colsはtidy-selectの文法なので-c(id, gender, education, age)でもいいです。longにしたい列名が「文字1文字数字1文字」なのがわかっているので、dplyr::matches()で正規表現を使って絞りました。

# A tibble: 70,000 × 6
   id    gender education   age items value
   <chr>  <int>     <int> <int> <chr> <int>
 1 61617      1        NA    16 A1        2
 2 61617      1        NA    16 A2        4
 3 61617      1        NA    16 A3        3
 4 61617      1        NA    16 A4        4
 5 61617      1        NA    16 A5        4
 6 61617      1        NA    16 C1        2
 7 61617      1        NA    16 C2        3
 8 61617      1        NA    16 C3        3
 9 61617      1        NA    16 C4        4
10 61617      1        NA    16 C5        4
# ℹ 69,990 more rows
…
df_test |>
  pivot_longer(
    cols = starts_with("q1"),
    names_to = "items"
  ) |>
  mutate(
    match_items = if_else(
      items %in% unlist(list_test_keys),
      items,
      str_c("-", items)
    )
  )

# A tibble: 70,000 × 7
   id    q2_x1 q2_x2 q2_x3 items  value match_items
   <chr> <int> <int> <int> <chr>  <int> <chr>      
 1 61617     1    NA    16 q1_x1      3 q1_x1      
 2 61617     1    NA    16 q1_x2      3 q1_x2      
 3 61617     1    NA    16 q1_x3      3 q1_x3      
 4 61617     1    NA    16 q1_x4      3 -q1_x4     
 5 61617     1    NA    16 q1_x5      2 -q1_x5     
 6 61617     1    NA    16 q1_x6      3 q1_x6      
 7 61617     1    NA    16 q1_x7      4 q1_x7      
 8 61617     1    NA    16 q1_x8      4 -q1_x8     
 9 61617     1    NA    16 q1_x9      4 q1_x9      
10 61617     1    NA    16 q1_x10     3 q1_x10     
# ℹ 69,990 more rows
…
      items %in% unlist(list_test_keys),
      items,
      str_c("-", items)
    ),
    nest_key = case_match(
      match_items,
      list_test_keys[["A"]] ~ "A",
      list_test_keys[["C"]] ~ "C",
      list_test_keys[["E"]] ~ "E",
      list_test_keys[["N"]] ~ "N",
      list_test_keys[["O"]] ~ "O",
    )
  )

# A tibble: 70,000 × 8
   id    q2_x1 q2_x2 q2_x3 items  value match_items nest_key
   <chr> <int> <int> <int> <chr>  <int> <chr>       <chr>   
 1 61617     1    NA    16 q1_x1      3 q1_x1       O       
 2 61617     1    NA    16 q1_x2      3 q1_x2       C       
 3 61617     1    NA    16 q1_x3      3 q1_x3       E       
 4 61617     1    NA    16 q1_x4      3 -q1_x4      O       
 5 61617     1    NA    16 q1_x5      2 -q1_x5      A       
 6 61617     1    NA    16 q1_x6      3 q1_x6       A       
 7 61617     1    NA    16 q1_x7      4 q1_x7       A       
 8 61617     1    NA    16 q1_x8      4 -q1_x8      C       
 9 61617     1    NA    16 q1_x9      4 q1_x9       N       
10 61617     1    NA    16 q1_x10     3 q1_x10      C       
# ℹ 69,990 more rows
…
