dplyr::rowwiseを使わないで個人の尺度得点を算出する – さかいの備忘録
…
1

わざわざ列名を変えなくてもいいのですが、tidyselect::starts_with()でいちいちignore.case = TRUEとしないとageとA*、educationとE*の区別をつけてもらえなくてめんどくさいので、変えておきます。

df_bfi

# A tibble: 2,800 × 29
   id    q_gender q_education q_age    A1    A2    A3    A4    A5    C1    C2    C3    C4    C5    E1    E2
   <chr>    <int>       <int> <int> <dbl> <int> <int> <int> <int> <int> <int> <int> <dbl> <dbl> <dbl> <dbl>
 1 61617        1          NA    16     5     4     3     4     4     2     3     3     3     3     4     4
 2 61618        2          NA    18     5     4     5     2     5     5     4     4     4     3     6     6
 3 61620        2          NA    17     2     4     5     4     4     4     5     4     5     2     5     3
 4 61621        2          NA    17     3     4     6     5     5     4     4     3     2     2     2     4
 5 61622        1          NA    17     5     3     3     4     5     4     4     5     4     5     5     5
 6 61623        2           3    21     1     6     5     6     5     6     6     6     6     4     5     6
 7 61624        1          NA    18     5     5     5     3     5     5     4     4     5     4     3     4
 8 61629        1           2    19     3     3     1     5     1     3     2     4     5     3     4     1
 9 61630        1           1    19     3     3     6     3     3     6     6     3     3     2     2     4
10 61633        2          NA    17     5     5     6     6     5     6     5     6     5     6     5     5
# ℹ 2,790 more rows
# ℹ 13 more variables: E3 <int>, E4 <int>, E5 <int>, N1 <int>, N2 <int>, N3 <int>, N4 <int>, N5 <int>,
#   O1 <int>, O2 <dbl>, O3 <int>, O4 <int>, O5 <dbl>
…
心理学のデータ処理で因子分析とα係数の確認を終えたら、次に行うのは尺度得点の計算だと思います。参加者ごとに下位尺度の得点を算出していくのですが、その場合は調べてみるとたいていはdplyr::rowise()1とdplyr::c_across()2を使った処理に行き着くと思います。つまり、rowwise()で行ごとにグルーピングして、c_acrossでまとめたい要素をまとめて、それで処理するという方法です。

df_bfi |>
  rowwise() |>
  mutate(
    score_A = mean(c_across(starts_with("A"))),
    score_C = mean(c_across(starts_with("C"))),
    score_E = mean(c_across(starts_with("E"))),
    score_N = mean(c_across(starts_with("N"))),
    score_O = mean(c_across(starts_with("O"))),
    .after = q_age
  ) |>
  ungroup()

# A tibble: 2,800 × 34
   id    q_gender q_education q_age score_A score_C score_E score_N score_O    A1    A2    A3    A4    A5
   <chr>    <int>       <int> <int>   <dbl>   <dbl>   <dbl>   <dbl>   <dbl> <dbl> <int> <int> <int> <int>
 1 61617        1          NA    16     4       2.8     3.8     2.8     3       5     4     3     4     4
 2 61618        2          NA    18     4.2     4       5       3.8     4       5     4     5     2     5
 3 61620        2          NA    17     3.8     4       4.2     3.6     4.8     2     4     5     4     4
 4 61621        2          NA    17     4.6     3       3.6     2.8     3.2     3     4     6     5     5
 5 61622        1          NA    17     4       4.4     4.8     3.2     3.6     5     3     3     4     5
 6 61623        2           3    21     4.6     5.6     5.6     3       5       1     6     5     6     5
 7 61624        1          NA    18     4.6     4.4     4.2     1.4     5.4     5     5     5     3     5
 8 61629        1           2    19     2.6     3.4     2.4     4.2     4.2     3     3     1     5     1
 9 61630        1           1    19     3.6     4      NA       3.6     5       3     3     6     3     3
10 61633        2          NA    17     5.4     5.6     4.8     4.2     5.2     5     5     6     6     5
# ℹ 2,790 more rows
# ℹ 20 more variables: C1 <int>, C2 <int>, C3 <int>, C4 <dbl>, C5 <dbl>, E1 <dbl>, E2 <dbl>, E3 <int>,
#   E4 <int>, E5 <int>, N1 <int>, N2 <int>, N3 <int>, N4 <int>, N5 <int>, O1 <int>, O2 <dbl>, O3 <int>,
#   O4 <int>, O5 <dbl>
…
なお、.by引数に突っ込めるrowwise()ってある？という質問がPosit Communityのforumに投げられているのですが、悲しいことに回答なしでclosedになっています。おそらく現時点ではそのようなものは実装されてないみたいなので、質問者の方が提示しているように.byには一意のID列を設定すればいいのだと思います。 そして、このID列を.byに入れたときは実質rowwise処理になるので、なんとc_across()がちゃんと動きます。

df_bfi |>
  mutate(
      score_A = mean(c_across(starts_with("A"))),
      score_C = mean(c_across(starts_with("C"))),
      score_E = mean(c_across(starts_with("E"))),
      score_N = mean(c_across(starts_with("N"))),
      score_O = mean(c_across(starts_with("O"))),
      .after = q_age,
      .by = id
    )

# A tibble: 2,800 × 34
   id    q_gender q_education q_age score_A score_C score_E score_N score_O    A1    A2    A3    A4    A5
   <chr>    <int>       <int> <int>   <dbl>   <dbl>   <dbl>   <dbl>   <dbl> <dbl> <int> <int> <int> <int>
 1 61617        1          NA    16     4       2.8     3.8     2.8     3       5     4     3     4     4
 2 61618        2          NA    18     4.2     4       5       3.8     4       5     4     5     2     5
 3 61620        2          NA    17     3.8     4       4.2     3.6     4.8     2     4     5     4     4
 4 61621        2          NA    17     4.6     3       3.6     2.8     3.2     3     4     6     5     5
 5 61622        1          NA    17     4       4.4     4.8     3.2     3.6     5     3     3     4     5
 6 61623        2           3    21     4.6     5.6     5.6     3       5       1     6     5     6     5
 7 61624        1          NA    18     4.6     4.4     4.2     1.4     5.4     5     5     5     3     5
 8 61629        1           2    19     2.6     3.4     2.4     4.2     4.2     3     3     1     5     1
 9 61630        1           1    19     3.6     4      NA       3.6     5       3     3     6     3     3
10 61633        2          NA    17     5.4     5.6     4.8     4.2     5.2     5     5     6     6     5
# ℹ 2,790 more rows
# ℹ 20 more variables: C1 <int>, C2 <int>, C3 <int>, C4 <dbl>, C5 <dbl>, E1 <dbl>, E2 <dbl>, E3 <int>,
#   E4 <int>, E5 <int>, N1 <int>, N2 <int>, N3 <int>, N4 <int>, N5 <int>, O1 <int>, O2 <dbl>, O3 <int>,
#   O4 <int>, O5 <dbl>
…
Row-wise means in dplyr

base::rowMeans()にdplyr::pick()4で列を選択して入れるという技です。pick()はmutate()やdplyr::summrise()のような関数の中でtidy-selectの文法を使ってdataframe列を選択できる関数です。pick()の戻り値がdataframeであること、rowMeans()は引数にdataframeも入れられること、rowMeans()の戻り値は各行の値の平均値を収めたベクトルであることを利用して、rowwise()を使わずに実質的にrowwise処理をしてしまおうというわけですね。

df_bfi |>
  mutate(
    score_A = rowMeans(pick(starts_with("A"))),
    score_C = rowMeans(pick(starts_with("C"))),
    score_E = rowMeans(pick(starts_with("E"))),
    score_N = rowMeans(pick(starts_with("N"))),
    score_O = rowMeans(pick(starts_with("O"))),
    .after = q_age
  )

# A tibble: 2,800 × 34
   id    q_gender q_education q_age score_A score_C score_E score_N score_O    A1    A2    A3    A4    A5
   <chr>    <int>       <int> <int>   <dbl>   <dbl>   <dbl>   <dbl>   <dbl> <dbl> <int> <int> <int> <int>
 1 61617        1          NA    16     4       2.8     3.8     2.8     3       5     4     3     4     4
 2 61618        2          NA    18     4.2     4       5       3.8     4       5     4     5     2     5
 3 61620        2          NA    17     3.8     4       4.2     3.6     4.8     2     4     5     4     4
 4 61621        2          NA    17     4.6     3       3.6     2.8     3.2     3     4     6     5     5
 5 61622        1          NA    17     4       4.4     4.8     3.2     3.6     5     3     3     4     5
 6 61623        2           3    21     4.6     5.6     5.6     3       5       1     6     5     6     5
 7 61624        1          NA    18     4.6     4.4     4.2     1.4     5.4     5     5     5     3     5
 8 61629        1           2    19     2.6     3.4     2.4     4.2     4.2     3     3     1     5     1
 9 61630        1           1    19     3.6     4      NA       3.6     5       3     3     6     3     3
10 61633        2          NA    17     5.4     5.6     4.8     4.2     5.2     5     5     6     6     5
# ℹ 2,790 more rows
# ℹ 20 more variables: C1 <int>, C2 <int>, C3 <int>, C4 <dbl>, C5 <dbl>, E1 <dbl>, E2 <dbl>, E3 <int>,
#   E4 <int>, E5 <int>, N1 <int>, N2 <int>, N3 <int>, N4 <int>, N5 <int>, O1 <int>, O2 <dbl>, O3 <int>,
#   O4 <int>, O5 <dbl>
…
    ),
    score_N = apply(
      pick(starts_with("N")),
      MARGIN = 1,
      FUN = mean
    ),
    score_O = apply(
      pick(starts_with("O")),
      MARGIN = 1,
      FUN = mean
    ),
    .after = q_age
  )

# A tibble: 2,800 × 34
   id    q_gender q_education q_age score_A score_C score_E score_N score_O    A1    A2    A3    A4    A5
   <chr>    <int>       <int> <int>   <dbl>   <dbl>   <dbl>   <dbl>   <dbl> <dbl> <int> <int> <int> <int>
 1 61617        1          NA    16     4       2.8     3.8     2.8     3       5     4     3     4     4
 2 61618        2          NA    18     4.2     4       5       3.8     4       5     4     5     2     5
 3 61620        2          NA    17     3.8     4       4.2     3.6     4.8     2     4     5     4     4
 4 61621        2          NA    17     4.6     3       3.6     2.8     3.2     3     4     6     5     5
 5 61622        1          NA    17     4       4.4     4.8     3.2     3.6     5     3     3     4     5
 6 61623        2           3    21     4.6     5.6     5.6     3       5       1     6     5     6     5
 7 61624        1          NA    18     4.6     4.4     4.2     1.4     5.4     5     5     5     3     5
 8 61629        1           2    19     2.6     3.4     2.4     4.2     4.2     3     3     1     5     1
 9 61630        1           1    19     3.6     4      NA       3.6     5       3     3     6     3     3
10 61633        2          NA    17     5.4     5.6     4.8     4.2     5.2     5     5     6     6     5
# ℹ 2,790 more rows
# ℹ 20 more variables: C1 <int>, C2 <int>, C3 <int>, C4 <dbl>, C5 <dbl>, E1 <dbl>, E2 <dbl>, E3 <int>,
#   E4 <int>, E5 <int>, N1 <int>, N2 <int>, N3 <int>, N4 <int>, N5 <int>, O1 <int>, O2 <dbl>, O3 <int>,
#   O4 <int>, O5 <dbl>
…
ダメでした。ということで、無理やりmatrixにして再挑戦します。

df_bfi |>
  mutate(
    score_A = pick(starts_with("A")) |>
      as.matrix() |>
      Rfast::rowmeans(),
    .after = q_age
  )

# A tibble: 2,800 × 30
   id    q_gender q_education q_age score_A    A1    A2    A3    A4    A5    C1    C2    C3    C4    C5    E1
   <chr>    <int>       <int> <int>   <dbl> <dbl> <int> <int> <int> <int> <int> <int> <int> <dbl> <dbl> <dbl>
 1 61617        1          NA    16     4       5     4     3     4     4     2     3     3     3     3     4
 2 61618        2          NA    18     4.2     5     4     5     2     5     5     4     4     4     3     6
 3 61620        2          NA    17     3.8     2     4     5     4     4     4     5     4     5     2     5
 4 61621        2          NA    17     4.6     3     4     6     5     5     4     4     3     2     2     2
 5 61622        1          NA    17     4       5     3     3     4     5     4     4     5     4     5     5
 6 61623        2           3    21     4.6     1     6     5     6     5     6     6     6     6     4     5
 7 61624        1          NA    18     4.6     5     5     5     3     5     5     4     4     5     4     3
 8 61629        1           2    19     2.6     3     3     1     5     1     3     2     4     5     3     4
 9 61630        1           1    19     3.6     3     3     6     3     3     6     6     3     3     2     2
10 61633        2          NA    17     5.4     5     5     6     6     5     6     5     6     5     6     5
# ℹ 2,790 more rows
# ℹ 14 more variables: E2 <dbl>, E3 <int>, E4 <int>, E5 <int>, N1 <int>, N2 <int>, N3 <int>, N4 <int>,
#   N5 <int>, O1 <int>, O2 <dbl>, O3 <int>, O4 <int>, O5 <dbl>
…
