2種類以下の数字で構成されていて、かつ0で終わらない平方数 – さかいの備忘録
…
1. data.frame(nums = as.character(gmp::as.bigz(1:1e+06)))

# A tibble: 1,000,000 × 1
   nums 
   <chr>
 1 1    
 2 2    
 3 3    
 4 4    
 5 5    
 6 6    
 7 7    
 8 8    
 9 9    
10 10   
# ℹ 999,990 more rows

2. subset(subset = !grepl(pattern = "0$", x = nums))

# A tibble: 900,000 × 1
   nums 
   <chr>
 1 1    
 2 2    
 3 3    
 4 4    
 5 5    
 6 6    
 7 7    
 8 8    
 9 9    
10 11   
# ℹ 899,990 more rows

3. transform(powers = as.character(gmp::pow.bigz(nums, e2 = 2)))

# A tibble: 900,000 × 2
   nums  powers
   <chr> <chr> 
 1 1     1     
 2 2     4     
 3 3     9     
 4 4     16    
 5 5     25    
 6 6     36    
 7 7     49    
 8 8     64    
 9 9     81    
10 11    121   
# ℹ 899,990 more rows

4. transform(n_kinds_digit = vapply(strsplit(powers, split = ""), FUN = function(x) {
    length(unique(x))
}, FUN.VALUE = integer(1)))

# A tibble: 900,000 × 3
   nums  powers n_kinds_digit
   <chr> <chr>          <int>
 1 1     1                  1
 2 2     4                  1
 3 3     9                  1
 4 4     16                 2
 5 5     25                 2
 6 6     36                 2
 7 7     49                 2
 8 8     64                 2
 9 9     81                 2
10 11    121                2
# ℹ 899,990 more rows

5. subset(subset = n_kinds_digit <= 2)

# A tibble: 24 × 3
   nums  powers n_kinds_digit
   <chr> <chr>          <int>
 1 1     1                  1
 2 2     4                  1
 3 3     9                  1
 4 4     16                 2
 5 5     25                 2
 6 6     36                 2
 7 7     49                 2
 8 8     64                 2
 9 9     81                 2
10 11    121                2
# ℹ 14 more rows
…
