R 確認的因子分析の表を作ってみた、1パイプラインで – さかいの備忘録
…
1. bfi

# A tibble: 2,800 × 28
      A1    A2    A3    A4    A5    C1    C2    C3    C4    C5    E1    E2    E3    E4    E5    N1
   <int> <int> <int> <int> <int> <int> <int> <int> <int> <int> <int> <int> <int> <int> <int> <int>
 1     2     4     3     4     4     2     3     3     4     4     3     3     3     4     4     3
 2     2     4     5     2     5     5     4     4     3     4     1     1     6     4     3     3
 3     5     4     5     4     4     4     5     4     2     5     2     4     4     4     5     4
 4     4     4     6     5     5     4     4     3     5     5     5     3     4     4     4     2
 5     2     3     3     4     5     4     4     5     3     2     2     2     5     4     5     2
 6     6     6     5     6     5     6     6     6     1     3     2     1     6     5     6     3
 7     2     5     5     3     5     5     4     4     2     3     4     3     4     5     5     1
 8     4     3     1     5     1     3     2     4     2     4     3     6     4     2     1     6
 9     4     3     6     3     3     6     6     3     4     5     5     3    NA     4     3     5
10     2     5     6     6     5     6     5     6     2     1     2     2     4     5     5     5
# ℹ 2,790 more rows
# ℹ 12 more variables: N2 <int>, N3 <int>, N4 <int>, N5 <int>, O1 <int>, O2 <int>, O3 <int>,
#   O4 <int>, O5 <int>, gender <int>, education <int>, age <int>

2. relocate(age, gender, education)

# A tibble: 2,800 × 28
     age gender education    A1    A2    A3    A4    A5    C1    C2    C3    C4    C5    E1    E2
   <int>  <int>     <int> <int> <int> <int> <int> <int> <int> <int> <int> <int> <int> <int> <int>
 1    16      1        NA     2     4     3     4     4     2     3     3     4     4     3     3
 2    18      2        NA     2     4     5     2     5     5     4     4     3     4     1     1
 3    17      2        NA     5     4     5     4     4     4     5     4     2     5     2     4
 4    17      2        NA     4     4     6     5     5     4     4     3     5     5     5     3
 5    17      1        NA     2     3     3     4     5     4     4     5     3     2     2     2
 6    21      2         3     6     6     5     6     5     6     6     6     1     3     2     1
 7    18      1        NA     2     5     5     3     5     5     4     4     2     3     4     3
 8    19      1         2     4     3     1     5     1     3     2     4     2     4     3     6
 9    19      1         1     4     3     6     3     3     6     6     3     4     5     5     3
10    17      2        NA     2     5     6     6     5     6     5     6     2     1     2     2
# ℹ 2,790 more rows
# ℹ 13 more variables: E3 <int>, E4 <int>, E5 <int>, N1 <int>, N2 <int>, N3 <int>, N4 <int>,
#   N5 <int>, O1 <int>, O2 <int>, O3 <int>, O4 <int>, O5 <int>

3. mutate(across(.cols = bfi.dictionary %>% subset(Keying == -1) %>% rownames(), .fns = function(x) {
    7 - x
}))

# A tibble: 2,800 × 28
     age gender education    A1    A2    A3    A4    A5    C1    C2    C3    C4    C5    E1    E2
   <int>  <int>     <int> <dbl> <int> <int> <int> <int> <int> <int> <int> <dbl> <dbl> <dbl> <dbl>
 1    16      1        NA     5     4     3     4     4     2     3     3     3     3     4     4
 2    18      2        NA     5     4     5     2     5     5     4     4     4     3     6     6
 3    17      2        NA     2     4     5     4     4     4     5     4     5     2     5     3
 4    17      2        NA     3     4     6     5     5     4     4     3     2     2     2     4
 5    17      1        NA     5     3     3     4     5     4     4     5     4     5     5     5
 6    21      2         3     1     6     5     6     5     6     6     6     6     4     5     6
 7    18      1        NA     5     5     5     3     5     5     4     4     5     4     3     4
 8    19      1         2     3     3     1     5     1     3     2     4     5     3     4     1
 9    19      1         1     3     3     6     3     3     6     6     3     3     2     2     4
10    17      2        NA     5     5     6     6     5     6     5     6     5     6     5     5
# ℹ 2,790 more rows
# ℹ 13 more variables: E3 <int>, E4 <int>, E5 <int>, N1 <dbl>, N2 <dbl>, N3 <dbl>, N4 <dbl>,
#   N5 <dbl>, O1 <int>, O2 <dbl>, O3 <int>, O4 <int>, O5 <dbl>

4. rownames_to_column(var = "id")

# A tibble: 2,800 × 29
   id      age gender education    A1    A2    A3    A4    A5    C1    C2    C3    C4    C5    E1
   <chr> <int>  <int>     <int> <dbl> <int> <int> <int> <int> <int> <int> <int> <dbl> <dbl> <dbl>
 1 61617    16      1        NA     5     4     3     4     4     2     3     3     3     3     4
 2 61618    18      2        NA     5     4     5     2     5     5     4     4     4     3     6
 3 61620    17      2        NA     2     4     5     4     4     4     5     4     5     2     5
 4 61621    17      2        NA     3     4     6     5     5     4     4     3     2     2     2
 5 61622    17      1        NA     5     3     3     4     5     4     4     5     4     5     5
 6 61623    21      2         3     1     6     5     6     5     6     6     6     6     4     5
 7 61624    18      1        NA     5     5     5     3     5     5     4     4     5     4     3
 8 61629    19      1         2     3     3     1     5     1     3     2     4     5     3     4
 9 61630    19      1         1     3     3     6     3     3     6     6     3     3     2     2
10 61633    17      2        NA     5     5     6     6     5     6     5     6     5     6     5
# ℹ 2,790 more rows
# ℹ 14 more variables: E2 <dbl>, E3 <int>, E4 <int>, E5 <int>, N1 <dbl>, N2 <dbl>, N3 <dbl>,
#   N4 <dbl>, N5 <dbl>, O1 <int>, O2 <dbl>, O3 <int>, O4 <int>, O5 <dbl>
…
