R 69という数字の面白い性質＆文字列の処理と正規表現のメモ – さかいの備忘録
…
1. tibble(number = 1:100, squared = number^2, cubed = number^3)

# A tibble: 100 × 3
   number squared cubed
    <int>   <dbl> <dbl>
 1      1       1     1
 2      2       4     8
 3      3       9    27
 4      4      16    64
 5      5      25   125
 6      6      36   216
 7      7      49   343
 8      8      64   512
 9      9      81   729
10     10     100  1000
# ℹ 90 more rows

2. filter(str_length(squared) + str_length(cubed) == 10)

# A tibble: 54 × 3
   number squared  cubed
    <int>   <dbl>  <dbl>
 1     47    2209 103823
 2     48    2304 110592
 3     49    2401 117649
 4     50    2500 125000
 5     51    2601 132651
 6     52    2704 140608
 7     53    2809 148877
 8     54    2916 157464
 9     55    3025 166375
10     56    3136 175616
# ℹ 44 more rows

3. mutate(is_dup = str_c(squared, cubed) %>% str_extract_all(pattern = ".") %>% map_lgl(.f = function(x) {
    duplicated(x) %>% any()
}))

# A tibble: 54 × 4
   number squared  cubed is_dup
    <int>   <dbl>  <dbl> <lgl> 
 1     47    2209 103823 TRUE  
 2     48    2304 110592 TRUE  
 3     49    2401 117649 TRUE  
 4     50    2500 125000 TRUE  
 5     51    2601 132651 TRUE  
 6     52    2704 140608 TRUE  
 7     53    2809 148877 TRUE  
 8     54    2916 157464 TRUE  
 9     55    3025 166375 TRUE  
10     56    3136 175616 TRUE  
# ℹ 44 more rows
…
