Rでデータの国名を日本語名にする – さかいの備忘録
…
Contents

Background

補助に入っている授業で、学生たちはオープンデータを使ってRの練習をしています。使用しているデータはYamada et al. (2021)1によるCOVIDiSTRESS Global Surveyデータセットです。データセットはOSFで公開されています。そのうち最終データ（COVIDiSTRESS_May_30_cleaned.csv）を利用しています。

df_covid <- read_csv(
  list.files("~/datasets/Yamada_etal_2020", full.names = TRUE)
)

df_covid

# A tibble: 125,306 × 154
      ID answered_all Duration..in.seconds. RecordedDate        UserLanguage Dem_age Dem_gender     
   <dbl> <chr>                        <dbl> <dttm>              <chr>          <dbl> <chr>          
 1     1 No                             180 2020-05-30 23:47:17 SAR               29 Female         
 2     2 No                            3100 2020-05-29 23:30:15 UR                20 Male           
 3     3 No                             127 2020-05-30 22:40:15 SAR               47 Female         
 4     4 No                            1710 2020-05-29 22:47:17 BG                79 Male           
 5     5 No                            2239 2020-05-29 22:42:30 SAR               61 Female         
 6     6 Yes                           1221 2020-05-29 21:25:09 IT                68 Male           
 7     7 Yes                           1283 2020-05-29 21:25:37 SAR               29 Other/would ra…
 8     8 Yes                           1442 2020-05-29 21:25:17 SAR               38 Female         
 9     9 No                            1952 2020-05-29 21:18:48 SME               35 Female         
10    10 No                             144 2020-05-30 20:24:41 SAR               23 Female         
# ℹ 125,296 more rows
# ℹ 147 more variables: Dem_edu <chr>, Dem_edu_mom <chr>, Dem_employment <chr>, Country <chr>,
#   Dem_Expat <chr>, Dem_state <chr>, Dem_maritalstatus <chr>, Dem_dependents <dbl>,
#   Dem_riskgroup <chr>, Dem_isolation <chr>, Dem_isolation_adults <dbl>, Dem_isolation_kids <dbl>,
#   AD_gain <chr>, AD_loss <chr>, AD_check <chr>, Scale_PSS10_UCLA_1 <dbl>,
#   Scale_PSS10_UCLA_2 <dbl>, Scale_PSS10_UCLA_3 <dbl>, Scale_PSS10_UCLA_4 <dbl>,
#   Scale_PSS10_UCLA_5 <dbl>, Scale_PSS10_UCLA_6 <dbl>, Scale_PSS10_UCLA_7 <dbl>, …
…
df_country_name <-
  df_covid |>
  count(Country, sort = TRUE) |>
  filter(!Country %in% c("other", NA)) |>
  mutate(
    Country = if_else(
      str_detect(Country, "voire$"),
      str_conv(Country, encoding = "windows-1252"),
      Country
    )
  )

df_country_name

# A tibble: 176 × 2
   Country       n
   <chr>     <int>
 1 Finland   22933
 2 France    13475
 3 Denmark   10891
 4 Mexico     9169
 5 Lithuania  8255
 6 Argentina  5923
 7 Japan      5072
 8 Bulgaria   4785
 9 Poland     3088
10 Sweden     3055
# ℹ 166 more rows
…
